   1 +0.000e+00 +1.000e+00
   2 -6.476e+06 +8.034e-01
   3 -7.840e+06 +7.556e-01
   4 -8.545e+06 +6.782e-01
   5 -8.942e+06 +3.971e-01
   6 -9.136e+06 +3.507e-01
   7 -9.266e+06 +3.243e-01
   8 -9.353e+06 +2.389e-01
   9 -9.430e+06 +1.886e-01
  10 -9.496e+06 +1.756e-01
  11 -9.552e+06 +1.921e-01
