   1 +1.000e+00 +1.000e+00
   2 +1.713e+00 +1.358e+00
   3 +2.243e+00 +1.294e+00
   4 +1.774e+00 +1.301e+00
   5 +1.737e+00 +1.316e+00
   6 +1.625e+00 +1.137e+00
   7 +1.834e+00 +9.951e-01
   8 +1.615e+00 +9.334e-01
   9 +1.542e+00 +9.393e-01
  10 +1.588e+00 +9.043e-01
  11 +1.808e+00 +8.455e-01
