   0 -3.666e-12 +3.633e-12 -3.633e-12 -3.665e-12 -0.000e+00 +0.000e+00 +0.000e+00 -3.834e-17 -3.262e-14 +0.000e+00 -3.834e-17 
   5 -3.666e-12 +3.633e-12 -3.633e-12 -3.665e-12 -0.000e+00 +0.000e+00 +0.000e+00 -9.117e-17 -3.262e-14 +0.000e+00 -9.117e-17 
  10 -3.666e-12 +3.633e-12 -3.633e-12 -3.665e-12 -0.000e+00 +0.000e+00 +0.000e+00 -2.056e-16 -3.262e-14 +0.000e+00 -2.056e-16 
  15 -3.666e-12 +3.633e-12 -3.633e-12 -3.665e-12 -0.000e+00 +0.000e+00 +0.000e+00 -3.175e-16 -3.262e-14 +0.000e+00 -3.175e-16 
  20 -3.666e-12 +3.633e-12 -3.633e-12 -3.665e-12 -0.000e+00 +0.000e+00 +0.000e+00 -3.362e-16 -3.262e-14 +0.000e+00 -3.362e-16 
  25 -3.666e-12 +3.633e-12 -3.633e-12 -3.665e-12 -0.000e+00 +0.000e+00 +0.000e+00 -3.109e-16 -3.262e-14 +0.000e+00 -3.109e-16 
  30 -3.666e-12 +3.633e-12 -3.633e-12 -3.665e-12 -0.000e+00 +0.000e+00 +0.000e+00 -3.795e-16 -3.262e-14 +0.000e+00 -3.795e-16 
  35 -3.666e-12 +3.633e-12 -3.633e-12 -3.665e-12 -0.000e+00 +0.000e+00 +0.000e+00 -6.132e-16 -3.262e-14 +0.000e+00 -6.132e-16 
  40 -3.666e-12 +3.633e-12 -3.633e-12 -3.665e-12 -0.000e+00 +0.000e+00 +0.000e+00 -7.502e-16 -3.262e-14 +0.000e+00 -7.502e-16 
  45 -3.666e-12 +3.633e-12 -3.633e-12 -3.665e-12 -0.000e+00 +0.000e+00 +0.000e+00 -2.760e-16 -3.262e-14 +0.000e+00 -2.760e-16 
  50 -3.666e-12 +3.633e-12 -3.633e-12 -3.665e-12 -0.000e+00 +0.000e+00 +0.000e+00 -1.847e-16 -3.262e-14 +0.000e+00 -1.847e-16 
  55 -3.669e-12 +3.633e-12 -3.633e-12 -3.665e-12 -0.000e+00 +0.000e+00 +0.000e+00 -3.000e-15 -3.262e-14 +0.000e+00 -3.000e-15 
  60 -3.673e-12 +3.633e-12 -3.633e-12 -3.665e-12 -4.858e-38 +8.249e-18 -1.623e-18 -7.046e-15 -3.262e-14 +8.249e-18 -7.048e-15 
  65 -3.671e-12 +3.633e-12 -3.633e-12 -3.665e-12 -3.121e-35 +5.314e-16 -1.288e-17 -5.980e-15 -3.262e-14 +5.314e-16 -5.993e-15 
  70 -3.665e-12 +3.633e-12 -3.633e-12 -3.665e-12 -1.089e-33 +1.518e-15 -2.251e-16 -9.064e-16 -3.265e-14 +1.518e-15 -1.132e-15 
  75 -3.666e-12 +3.633e-12 -3.633e-12 -3.665e-12 +9.786e-34 -7.360e-17 +1.303e-15 -1.152e-15 -3.262e-14 -7.360e-17 +1.511e-16 
  80 -3.661e-12 +3.633e-12 -3.633e-12 -3.665e-12 +4.694e-31 +6.297e-16 +9.327e-15 -5.496e-15 -3.246e-14 +6.297e-16 +3.832e-15 
  85 -3.648e-12 +3.632e-12 -3.634e-12 -3.665e-12 +7.779e-30 +8.048e-15 +1.602e-14 -3.770e-15 -3.368e-14 +8.048e-15 +1.225e-14 
  90 -3.656e-12 +3.628e-12 -3.634e-12 -3.665e-12 +4.764e-29 +7.536e-15 +7.543e-15 -7.132e-18 -3.736e-14 +7.536e-15 +7.536e-15 
  95 -3.673e-12 +3.625e-12 -3.626e-12 -3.665e-12 -6.901e-29 -9.415e-16 -2.510e-15 -3.581e-15 -3.997e-14 -9.415e-16 -6.091e-15 
 100 -3.660e-12 +3.626e-12 -3.614e-12 -3.665e-12 -2.644e-27 -2.951e-16 -6.539e-16 -6.090e-15 -3.931e-14 -2.951e-16 -6.744e-15 
 105 -3.643e-12 +3.627e-12 -3.605e-12 -3.665e-12 -1.108e-26 +2.372e-15 -6.984e-17 -1.255e-15 -3.852e-14 +2.372e-15 -1.325e-15 
 110 -3.645e-12 +3.627e-12 -3.606e-12 -3.665e-12 +4.546e-26 -2.395e-15 +3.605e-15 -1.401e-15 -3.857e-14 -2.395e-15 +2.205e-15 
 115 -3.650e-12 +3.627e-12 -3.616e-12 -3.665e-12 +7.281e-25 -7.407e-15 +1.924e-14 -7.112e-15 -3.849e-14 -7.407e-15 +1.213e-14 
 120 -3.659e-12 +3.627e-12 -3.632e-12 -3.665e-12 +3.423e-24 -7.101e-15 +2.370e-14 -4.540e-15 -3.871e-14 -7.101e-15 +1.916e-14 
 125 -3.679e-12 +3.628e-12 -3.646e-12 -3.665e-12 +2.027e-24 -8.684e-16 +5.881e-15 -3.536e-18 -3.743e-14 -8.684e-16 +5.878e-15 
 130 -3.682e-12 +3.632e-12 -3.642e-12 -3.665e-12 -6.290e-23 +4.142e-15 -6.218e-15 -4.964e-15 -3.324e-14 +4.142e-15 -1.118e-14 
 135 -3.658e-12 +3.636e-12 -3.618e-12 -3.665e-12 -3.269e-22 -3.406e-16 -2.486e-15 -7.482e-15 -2.959e-14 -3.406e-16 -9.968e-15 
 140 -3.627e-12 +3.637e-12 -3.590e-12 -3.665e-12 -1.452e-22 -8.249e-16 -5.718e-15 -1.741e-15 -2.869e-14 -8.249e-16 -7.459e-15 
 145 -3.603e-12 +3.636e-12 -3.573e-12 -3.665e-12 +6.163e-21 +1.621e-14 -1.598e-14 -4.936e-16 -2.963e-14 +1.621e-14 -1.647e-14 
 150 -3.595e-12 +3.631e-12 -3.573e-12 -3.665e-12 +3.324e-20 +2.738e-14 -1.229e-14 -2.481e-15 -3.454e-14 +2.738e-14 -1.477e-14 
 155 -3.616e-12 +3.622e-12 -3.586e-12 -3.665e-12 +5.928e-20 +1.193e-14 +1.327e-15 -3.880e-16 -4.324e-14 +1.193e-14 +9.389e-16 
 160 -3.648e-12 +3.617e-12 -3.599e-12 -3.665e-12 -1.791e-19 -7.098e-15 +7.299e-15 -1.378e-15 -4.820e-14 -7.098e-15 +5.921e-15 
 165 -3.654e-12 +3.619e-12 -3.600e-12 -3.665e-12 -1.280e-18 -8.378e-15 +4.498e-15 -4.286e-15 -4.595e-14 -8.379e-15 +2.115e-16 
 170 -3.635e-12 +3.624e-12 -3.592e-12 -3.665e-12 -2.023e-18 -2.430e-15 +2.829e-15 -1.318e-15 -4.154e-14 -2.432e-15 +1.511e-15 
 175 -3.614e-12 +3.627e-12 -3.594e-12 -3.665e-12 +8.387e-18 +3.469e-15 +1.517e-14 -6.680e-16 -3.845e-14 +3.478e-15 +1.451e-14 
 180 -3.608e-12 +3.628e-12 -3.618e-12 -3.665e-12 +5.263e-17 +1.033e-14 +4.103e-14 -4.059e-15 -3.748e-14 +1.039e-14 +3.697e-14 
 185 -3.654e-12 +3.625e-12 -3.670e-12 -3.665e-12 +1.050e-16 +8.730e-15 +4.875e-14 -1.496e-15 -4.049e-14 +8.835e-15 +4.725e-14 
 190 -3.762e-12 +3.619e-12 -3.733e-12 -3.665e-12 -7.633e-17 -2.207e-15 +2.031e-14 -1.136e-15 -4.589e-14 -2.283e-15 +1.917e-14 
 195 -3.843e-12 +3.614e-12 -3.770e-12 -3.663e-12 -8.968e-16 -7.143e-15 -6.125e-15 -9.470e-15 -4.941e-14 -8.040e-15 -1.559e-14 
 200 -3.820e-12 +3.611e-12 -3.750e-12 -3.661e-12 -1.643e-15 -1.968e-15 -5.019e-15 -1.135e-14 -5.061e-14 -3.611e-15 -1.637e-14 
 205 -3.739e-12 +3.606e-12 -3.664e-12 -3.657e-12 +1.966e-15 -1.426e-15 -1.989e-14 -4.597e-15 -5.137e-14 +5.398e-16 -2.448e-14 
 210 -3.656e-12 +3.595e-12 -3.532e-12 -3.648e-12 +1.534e-14 -1.840e-14 -6.741e-14 -9.889e-16 -5.247e-14 -3.053e-15 -6.840e-14 
 215 -3.515e-12 +3.570e-12 -3.383e-12 -3.622e-12 +2.727e-14 -3.407e-14 -7.128e-14 -1.639e-15 -5.238e-14 -6.795e-15 -7.292e-14 
 220 -3.316e-12 +3.518e-12 -3.265e-12 -3.565e-12 -1.050e-14 +1.238e-14 +1.173e-15 -7.182e-15 -4.686e-14 +1.878e-15 -6.009e-15 
 225 -3.229e-12 +3.435e-12 -3.241e-12 -3.471e-12 -1.382e-13 +1.511e-13 +4.677e-14 -1.159e-14 -3.597e-14 +1.293e-14 +3.518e-14 
 230 -3.360e-12 +3.328e-12 -3.343e-12 -3.355e-12 -2.299e-13 +2.372e-13 +7.293e-15 -4.077e-15 -2.706e-14 +7.252e-15 +3.217e-15 
 235 -3.562e-12 +3.206e-12 -3.541e-12 -3.231e-12 +7.955e-14 -7.949e-14 +4.511e-15 -6.676e-16 -2.436e-14 +5.922e-17 +3.843e-15 
 240 -3.679e-12 +3.036e-12 -3.780e-12 -3.064e-12 +9.564e-13 -9.457e-13 +1.249e-13 -6.325e-15 -2.804e-14 +1.070e-14 +1.186e-13 
 245 -3.837e-12 +2.779e-12 -4.036e-12 -2.818e-12 +1.556e-12 -1.540e-12 +2.230e-13 -5.963e-16 -3.945e-14 +1.616e-14 +2.224e-13 
 250 -4.279e-12 +2.553e-12 -4.342e-12 -2.605e-12 +2.748e-13 -2.731e-13 +1.298e-13 -1.660e-14 -5.222e-14 +1.700e-15 +1.132e-13 
 255 -4.944e-12 +2.648e-12 -4.760e-12 -2.703e-12 -2.891e-12 +2.884e-12 -4.219e-14 -7.971e-14 -5.480e-14 -7.573e-15 -1.219e-13 
 260 -5.433e-12 +3.173e-12 -5.271e-12 -3.222e-12 -4.588e-12 +4.584e-12 +2.089e-15 -1.113e-13 -4.937e-14 -3.904e-15 -1.092e-13 
 265 -5.585e-12 +3.870e-12 -5.638e-12 -3.916e-12 -1.691e-12 +1.690e-12 +1.759e-13 -7.644e-14 -4.568e-14 -1.015e-15 +9.949e-14 
 270 -5.788e-12 +4.721e-12 -5.456e-12 -4.766e-12 +2.476e-12 -2.473e-12 -2.426e-13 -4.755e-14 -4.547e-14 +3.132e-15 -2.902e-13 
 275 -5.880e-12 +6.436e-12 -4.301e-12 -6.486e-12 +1.071e-12 -1.066e-12 -1.461e-12 -7.421e-14 -4.918e-14 +5.269e-15 -1.535e-12 
 280 -4.101e-12 +9.312e-12 -1.866e-12 -9.367e-12 -2.884e-12 +2.884e-12 -2.014e-12 -1.650e-13 -5.468e-14 -3.156e-16 -2.179e-12 
 285 +5.339e-13 +1.168e-11 +1.573e-12 -1.173e-11 +4.850e-12 -4.846e-12 -8.446e-13 -1.451e-13 -5.204e-14 +3.075e-15 -9.897e-13 
 290 +4.528e-12 +1.145e-11 +4.587e-12 -1.149e-11 +2.548e-11 -2.547e-11 -1.671e-14 -1.324e-14 -4.243e-14 +1.277e-14 -2.995e-14 
 295 +2.516e-12 +9.494e-12 +5.247e-12 -9.532e-12 +3.204e-11 -3.203e-11 -1.260e-12 -1.439e-12 -3.800e-14 +6.791e-15 -2.700e-12 
 300 -4.985e-12 +8.525e-12 +2.721e-12 -8.563e-12 +3.150e-12 -3.150e-12 -9.807e-13 -6.687e-12 -3.822e-14 -1.200e-16 -7.668e-12 
 305 -1.160e-11 +7.564e-12 -2.467e-12 -7.603e-12 -3.422e-11 +3.423e-11 +4.000e-12 -1.310e-11 -3.921e-14 +4.520e-15 -9.101e-12 
 310 -1.461e-11 +2.404e-12 -9.319e-12 -2.447e-12 -3.351e-11 +3.351e-11 +7.736e-12 -1.298e-11 -4.342e-14 -1.416e-15 -5.243e-12 
 315 -1.700e-11 -5.795e-12 -1.574e-11 +5.755e-12 -3.167e-12 +3.158e-12 +3.750e-12 -4.961e-12 -4.031e-14 -9.071e-15 -1.211e-12 
 320 -1.798e-11 -8.436e-12 -1.805e-11 +8.414e-12 -3.316e-12 +3.317e-12 +1.169e-13 -2.599e-14 -2.184e-14 +1.732e-15 +9.095e-14 
 325 -1.173e-11 -8.737e-13 -1.442e-11 +8.660e-13 -5.058e-11 +5.058e-11 +9.839e-12 -7.142e-12 -7.633e-15 +2.248e-15 +2.697e-12 
 330 -1.499e-13 +9.992e-12 -8.583e-12 -1.000e-11 -8.165e-11 +8.164e-11 +2.702e-11 -1.856e-11 -1.046e-14 -1.432e-14 +8.458e-12 
 335 +5.075e-12 +1.542e-11 -6.342e-12 -1.544e-11 -4.653e-11 +4.652e-11 +3.146e-11 -2.002e-11 -1.575e-14 -1.080e-14 +1.144e-11 
 340 -8.674e-13 +1.624e-11 -8.382e-12 -1.626e-11 +1.424e-11 -1.424e-11 +1.817e-11 -1.064e-11 -1.653e-14 +1.611e-15 +7.530e-12 
 345 -8.383e-12 +1.785e-11 -1.009e-11 -1.787e-11 +3.255e-11 -3.256e-11 +3.538e-12 -1.808e-12 -1.651e-14 -7.452e-15 +1.729e-12 
 350 -8.194e-12 +1.942e-11 -8.168e-12 -1.943e-11 +9.975e-12 -9.988e-12 +1.794e-13 -1.836e-13 -9.087e-15 -1.307e-14 -4.189e-15 
 355 -3.010e-12 +1.603e-11 -3.929e-12 -1.602e-11 -1.478e-12 +1.476e-12 +3.051e-12 -2.135e-12 +4.401e-15 -1.576e-15 +9.158e-13 
 360 +4.446e-13 +7.855e-12 -1.399e-13 -7.846e-12 +1.439e-11 -1.439e-11 +3.238e-12 -2.660e-12 +8.142e-15 -1.393e-15 +5.777e-13 
 365 +1.332e-12 +2.028e-13 +2.073e-12 -2.021e-13 +2.579e-11 -2.580e-11 +7.452e-13 -1.477e-12 +6.769e-16 -9.480e-15 -7.318e-13 
 370 +1.920e-12 -3.917e-12 +2.843e-12 +3.911e-12 +1.320e-11 -1.320e-11 -5.130e-13 -3.998e-13 -6.090e-15 -4.483e-15 -9.128e-13 
 375 +2.252e-12 -5.759e-12 +2.489e-12 +5.750e-12 -5.463e-12 +5.464e-12 -1.927e-13 -3.595e-14 -8.480e-15 +2.337e-16 -2.287e-13 
 380 +1.497e-12 -6.678e-12 +1.516e-12 +6.671e-12 -9.786e-12 +9.781e-12 -6.232e-15 -3.296e-16 -6.789e-15 -5.118e-15 -6.562e-15 
 385 +3.159e-13 -6.283e-12 +5.743e-13 +6.283e-12 -3.471e-12 +3.466e-12 -2.506e-13 -3.204e-15 +2.990e-16 -4.850e-15 -2.539e-13 
 390 -2.930e-13 -4.434e-12 +1.624e-14 +4.442e-12 +2.793e-13 -2.784e-13 -3.174e-13 -1.074e-15 +8.301e-15 +9.478e-16 -3.185e-13 
 395 -3.241e-13 -2.239e-12 -1.991e-13 +2.251e-12 -1.112e-12 +1.111e-12 -1.351e-13 -1.136e-16 +1.121e-14 -1.041e-15 -1.352e-13 
 400 -2.242e-13 -7.309e-13 -2.333e-13 +7.407e-13 -2.125e-12 +2.120e-12 +4.961e-15 -0.000e+00 +9.797e-15 -5.623e-15 +4.961e-15 
 405 -1.800e-13 +3.976e-14 -1.980e-13 -3.231e-14 -4.969e-13 +4.951e-13 +1.243e-14 -9.515e-17 +7.445e-15 -1.780e-15 +1.234e-14 
 410 -1.526e-13 +4.425e-13 -1.471e-13 -4.374e-13 +1.261e-12 -1.255e-12 -1.567e-14 -4.021e-16 +5.086e-15 +5.446e-15 -1.607e-14 
 415 -1.019e-13 +6.329e-13 -9.986e-14 -6.303e-13 +1.220e-12 -1.214e-12 -9.934e-15 -4.932e-16 +2.562e-15 +5.839e-15 -1.043e-14 
 420 -4.748e-14 +6.126e-13 -6.094e-14 -6.120e-13 +1.673e-13 -1.665e-13 +1.224e-14 -1.573e-16 +6.011e-16 +7.738e-16 +1.208e-14 
 425 -1.740e-14 +4.600e-13 -3.204e-14 -4.595e-13 -4.862e-13 +4.846e-13 +1.575e-14 -1.954e-19 +4.952e-16 -1.610e-15 +1.575e-14 
 430 -5.897e-15 +3.021e-13 -1.162e-14 -3.000e-13 -4.311e-13 +4.309e-13 +3.904e-15 -2.521e-17 +2.077e-15 -2.363e-16 +3.879e-15 
 435 +8.206e-15 +1.971e-13 +4.864e-15 -1.935e-13 -1.364e-13 +1.368e-13 -7.103e-16 -1.025e-18 +3.632e-15 +4.218e-16 -7.113e-16 
 440 +3.047e-14 +1.317e-13 +2.125e-14 -1.276e-13 +3.002e-14 -3.023e-14 +5.426e-15 -8.564e-17 +4.090e-15 -2.130e-16 +5.340e-15 
 445 +4.262e-14 +8.225e-14 +3.549e-14 -7.910e-14 +4.458e-14 -4.542e-14 +4.954e-15 -1.397e-16 +3.159e-15 -8.429e-16 +4.815e-15 
 450 +3.145e-14 +4.354e-14 +3.999e-14 -4.212e-14 +1.304e-14 -1.406e-14 -8.828e-15 -1.225e-16 +1.415e-15 -1.012e-15 -8.951e-15 
 455 +1.737e-14 +2.017e-14 +3.126e-14 -1.869e-14 -4.466e-15 +5.758e-15 -1.640e-14 -2.639e-16 +1.480e-15 +1.291e-15 -1.666e-14 
 460 +1.482e-14 +1.212e-14 +1.366e-14 -7.193e-15 -5.423e-15 +9.693e-15 -7.095e-15 -9.369e-16 +4.930e-15 +4.270e-15 -8.032e-15 
 465 +4.840e-15 +1.199e-14 -5.428e-15 -2.730e-15 -2.080e-15 +4.733e-15 +2.881e-16 -1.930e-15 +9.257e-15 +2.652e-15 -1.642e-15 
 470 -8.970e-15 +1.270e-14 -1.677e-14 -1.174e-15 -2.072e-16 +5.960e-17 -1.949e-15 -1.626e-15 +1.152e-14 -1.476e-16 -3.576e-15 
 475 +1.574e-15 +1.143e-14 -1.388e-14 -5.449e-16 +1.617e-16 +2.078e-15 +2.550e-15 -2.262e-16 +1.089e-14 +2.240e-15 +2.323e-15 
 480 +2.123e-14 +7.053e-15 -2.232e-15 -2.329e-16 +7.839e-17 +4.396e-15 +1.245e-14 -2.908e-16 +6.821e-15 +4.475e-15 +1.216e-14 
 485 +1.859e-14 +9.233e-16 +6.605e-15 -8.355e-17 +7.327e-18 +1.055e-15 +1.109e-14 -1.002e-15 +8.397e-16 +1.063e-15 +1.009e-14 
 490 +7.954e-15 -2.295e-15 +9.011e-15 -2.482e-17 -7.018e-18 -1.378e-15 +2.915e-15 -2.676e-16 -2.319e-15 -1.385e-15 +2.647e-15 
 495 +7.857e-15 -4.055e-16 +7.827e-15 -6.483e-18 -3.703e-18 +6.828e-16 +3.606e-17 -2.736e-16 -4.119e-16 +6.791e-16 -2.375e-16 
 500 +8.701e-15 +3.598e-15 +5.347e-15 -1.741e-18 -8.047e-19 +1.285e-15 -1.214e-17 -1.514e-15 +3.596e-15 +1.285e-15 -1.527e-15 
 505 +1.067e-14 +6.522e-15 +4.100e-15 -5.504e-19 -8.921e-21 +8.025e-18 +9.873e-16 -9.512e-16 +6.522e-15 +8.016e-18 +3.606e-17 
 510 +1.737e-14 +7.269e-15 +4.824e-15 -1.869e-19 +4.660e-20 +1.425e-15 +3.857e-15 -1.739e-18 +7.269e-15 +1.425e-15 +3.856e-15 
 515 +1.343e-14 +5.108e-15 +4.124e-15 -5.765e-20 +1.278e-20 +2.838e-15 +2.226e-15 -8.658e-16 +5.108e-15 +2.838e-15 +1.360e-15 
 520 -3.369e-16 +9.044e-16 +1.667e-15 -1.494e-20 +4.645e-22 +4.440e-16 -2.592e-15 -7.600e-16 +9.044e-16 +4.440e-16 -3.352e-15 
 525 -3.125e-15 -2.159e-15 +2.751e-15 -3.241e-21 -6.859e-22 -1.927e-15 -1.765e-15 -2.569e-17 -2.159e-15 -1.927e-15 -1.791e-15 
 530 +4.425e-15 -2.291e-15 +9.625e-15 -6.264e-22 -2.362e-22 -1.103e-15 +2.623e-18 -1.808e-15 -2.291e-15 -1.103e-15 -1.805e-15 
 535 +1.239e-14 -8.438e-16 +1.875e-14 -1.238e-22 -3.601e-23 +1.396e-16 -2.823e-15 -2.832e-15 -8.438e-16 +1.396e-16 -5.655e-15 
 540 +2.496e-14 +3.370e-16 +2.523e-14 -2.808e-23 -2.544e-25 +1.429e-17 +6.651e-17 -6.838e-16 +3.370e-16 +1.429e-17 -6.173e-16 
 545 +3.253e-14 +4.070e-16 +2.292e-14 -6.850e-24 +1.140e-24 -2.969e-16 +9.906e-15 -3.987e-16 +4.070e-16 -2.969e-16 +9.507e-15 
 550 +1.443e-14 -9.078e-16 +7.265e-15 -1.564e-24 +2.517e-25 -5.303e-16 +1.126e-14 -2.662e-15 -9.078e-16 -5.303e-16 +8.601e-15 
 555 -1.805e-14 -2.722e-15 -1.632e-14 -3.117e-25 +1.785e-26 -4.634e-16 +3.622e-15 -2.167e-15 -2.722e-15 -4.634e-16 +1.455e-15 
 560 -3.599e-14 -3.021e-15 -3.400e-14 -5.406e-26 -3.657e-27 +9.659e-16 +1.619e-16 -1.001e-16 -3.021e-15 +9.659e-16 +6.183e-17 
 565 -3.550e-14 -7.885e-16 -3.533e-14 -8.510e-27 -1.264e-27 +2.584e-15 -9.814e-16 -9.777e-16 -7.885e-16 +2.584e-15 -1.959e-15 
 570 -2.322e-14 +2.902e-15 -1.892e-14 -1.307e-27 -1.738e-28 +2.035e-15 -6.733e-15 -2.507e-15 +2.902e-15 +2.035e-15 -9.240e-15 
 575 +4.926e-15 +6.212e-15 +9.062e-15 -2.081e-28 -8.053e-30 +3.103e-16 -9.251e-15 -1.408e-15 +6.212e-15 +3.103e-16 -1.066e-14 
 580 +4.023e-14 +7.714e-15 +3.619e-14 -3.414e-29 +1.557e-30 +2.025e-16 -3.844e-15 -3.379e-17 +7.714e-15 +2.025e-16 -3.877e-15 
 585 +5.612e-14 +6.367e-15 +4.901e-14 -5.457e-30 +3.723e-31 +1.333e-15 -5.472e-18 -5.842e-16 +6.367e-15 +1.333e-15 -5.897e-16 
 590 +4.369e-14 +1.875e-15 +4.202e-14 -8.143e-31 +3.554e-32 +1.302e-15 -3.813e-17 -1.469e-15 +1.875e-15 +1.302e-15 -1.507e-15 
 595 +1.874e-14 -4.498e-15 +1.994e-14 -1.124e-31 +7.889e-34 +1.949e-16 +4.379e-15 -1.279e-15 -4.498e-15 +1.949e-16 +3.100e-15 
 600 -7.444e-15 -1.023e-14 -7.566e-15 -1.462e-32 -1.891e-34 -1.509e-16 +1.107e-14 -5.749e-16 -1.023e-14 -1.509e-16 +1.050e-14 
