0.000e+00 1.500e+03 1.500e+03 -3.798e-07
3.500e+00 1.500e+03 1.500e+03 -4.001e-07
7.000e+00 1.500e+03 1.500e+03 -4.544e-07
1.050e+01 1.500e+03 1.500e+03 -5.425e-07
1.400e+01 1.500e+03 1.500e+03 -6.714e-07
1.750e+01 1.500e+03 1.500e+03 -8.545e-07
2.100e+01 1.500e+03 1.500e+03 -1.085e-06
2.450e+01 1.500e+03 1.500e+03 -1.397e-06
2.800e+01 1.500e+03 1.500e+03 -1.797e-06
3.150e+01 1.500e+03 1.500e+03 -2.306e-06
3.500e+01 1.500e+03 1.500e+03 -2.957e-06
3.850e+01 1.500e+03 1.500e+03 -3.771e-06
4.200e+01 1.500e+03 1.500e+03 -4.788e-06
4.550e+01 1.500e+03 1.500e+03 -6.056e-06
4.900e+01 1.500e+03 1.500e+03 -7.622e-06
5.250e+01 1.500e+03 1.500e+03 -9.548e-06
5.600e+01 1.500e+03 1.500e+03 -1.192e-05
5.950e+01 1.500e+03 1.500e+03 -1.480e-05
6.300e+01 1.500e+03 1.500e+03 -1.830e-05
6.650e+01 1.500e+03 1.500e+03 -2.254e-05
7.000e+01 1.500e+03 1.500e+03 -2.762e-05
7.350e+01 1.500e+03 1.501e+03 -3.370e-05
7.700e+01 1.500e+03 1.501e+03 -4.094e-05
8.050e+01 1.500e+03 1.501e+03 -4.951e-05
8.400e+01 1.500e+03 1.501e+03 -5.960e-05
8.750e+01 1.500e+03 1.501e+03 -7.145e-05
9.100e+01 1.500e+03 1.502e+03 -8.527e-05
9.450e+01 1.500e+03 1.502e+03 -1.013e-04
9.800e+01 1.500e+03 1.502e+03 -1.199e-04
1.015e+02 1.500e+03 1.503e+03 -1.412e-04
1.050e+02 1.500e+03 1.503e+03 -1.656e-04
1.085e+02 1.500e+03 1.503e+03 -1.935e-04
1.120e+02 1.500e+03 1.504e+03 -2.250e-04
1.155e+02 1.500e+03 1.505e+03 -2.606e-04
1.190e+02 1.500e+03 1.505e+03 -3.005e-04
1.225e+02 1.500e+03 1.506e+03 -3.451e-04
1.260e+02 1.500e+03 1.507e+03 -3.947e-04
1.295e+02 1.500e+03 1.508e+03 -4.496e-04
1.330e+02 1.500e+03 1.509e+03 -5.100e-04
1.365e+02 1.500e+03 1.510e+03 -5.762e-04
1.400e+02 1.500e+03 1.512e+03 -6.483e-04
1.435e+02 1.500e+03 1.513e+03 -7.267e-04
1.470e+02 1.500e+03 1.515e+03 -8.112e-04
1.505e+02 1.500e+03 1.516e+03 -9.022e-04
1.540e+02 1.500e+03 1.518e+03 -9.994e-04
1.575e+02 1.500e+03 1.520e+03 -1.103e-03
1.610e+02 1.500e+03 1.522e+03 -1.213e-03
1.645e+02 1.500e+03 1.524e+03 -1.328e-03
1.680e+02 1.500e+03 1.526e+03 -1.449e-03
1.715e+02 1.500e+03 1.529e+03 -1.576e-03
1.750e+02 1.500e+03 1.531e+03 -1.708e-03
1.785e+02 1.500e+03 1.534e+03 -1.844e-03
1.820e+02 1.500e+03 1.536e+03 -1.984e-03
1.855e+02 1.500e+03 1.539e+03 -2.127e-03
1.890e+02 1.500e+03 1.541e+03 -2.273e-03
1.925e+02 1.500e+03 1.544e+03 -2.421e-03
1.960e+02 1.500e+03 1.547e+03 -2.570e-03
1.995e+02 1.600e+03 1.550e+03 2.657e-03
2.030e+02 1.600e+03 1.553e+03 2.507e-03
2.065e+02 1.600e+03 1.555e+03 2.358e-03
2.100e+02 1.600e+03 1.558e+03 2.210e-03
2.135e+02 1.600e+03 1.561e+03 2.065e-03
2.170e+02 1.600e+03 1.564e+03 1.923e-03
2.205e+02 1.600e+03 1.566e+03 1.784e-03
2.240e+02 1.600e+03 1.569e+03 1.649e-03
2.275e+02 1.600e+03 1.571e+03 1.519e-03
2.310e+02 1.600e+03 1.573e+03 1.394e-03
2.345e+02 1.600e+03 1.576e+03 1.274e-03
2.380e+02 1.600e+03 1.578e+03 1.161e-03
2.415e+02 1.600e+03 1.580e+03 1.053e-03
2.450e+02 1.600e+03 1.582e+03 9.516e-04
2.485e+02 1.600e+03 1.584e+03 8.567e-04
2.520e+02 1.600e+03 1.585e+03 7.682e-04
2.555e+02 1.600e+03 1.587e+03 6.860e-04
2.590e+02 1.600e+03 1.588e+03 6.102e-04
2.625e+02 1.600e+03 1.590e+03 5.405e-04
2.660e+02 1.600e+03 1.591e+03 4.769e-04
2.695e+02 1.600e+03 1.592e+03 4.190e-04
2.730e+02 1.600e+03 1.593e+03 3.665e-04
2.765e+02 1.600e+03 1.594e+03 3.193e-04
2.800e+02 1.600e+03 1.595e+03 2.770e-04
2.835e+02 1.600e+03 1.595e+03 2.393e-04
2.870e+02 1.600e+03 1.596e+03 2.059e-04
2.905e+02 1.600e+03 1.597e+03 1.763e-04
2.940e+02 1.600e+03 1.597e+03 1.504e-04
2.975e+02 1.600e+03 1.598e+03 1.277e-04
3.010e+02 1.600e+03 1.598e+03 1.079e-04
3.045e+02 1.600e+03 1.598e+03 9.085e-05
3.080e+02 1.600e+03 1.599e+03 7.614e-05
3.115e+02 1.600e+03 1.599e+03 6.352e-05
3.150e+02 1.600e+03 1.599e+03 5.276e-05
3.185e+02 1.600e+03 1.599e+03 4.363e-05
3.220e+02 1.600e+03 1.599e+03 3.592e-05
3.255e+02 1.600e+03 1.599e+03 2.945e-05
3.290e+02 1.600e+03 1.600e+03 2.402e-05
3.325e+02 1.600e+03 1.600e+03 1.951e-05
3.360e+02 1.600e+03 1.600e+03 1.578e-05
3.395e+02 1.600e+03 1.600e+03 1.270e-05
3.430e+02 1.600e+03 1.600e+03 1.018e-05
3.465e+02 1.600e+03 1.600e+03 8.113e-06
3.500e+02 1.600e+03 1.600e+03 6.447e-06
3.535e+02 1.600e+03 1.600e+03 5.099e-06
3.570e+02 1.600e+03 1.600e+03 4.012e-06
3.605e+02 1.600e+03 1.600e+03 3.141e-06
3.640e+02 1.600e+03 1.600e+03 2.448e-06
3.675e+02 1.600e+03 1.600e+03 1.901e-06
3.710e+02 1.600e+03 1.600e+03 1.475e-06
3.745e+02 1.600e+03 1.600e+03 1.138e-06
3.780e+02 1.600e+03 1.600e+03 8.774e-07
3.815e+02 1.600e+03 1.600e+03 6.739e-07
3.850e+02 1.600e+03 1.600e+03 5.150e-07
3.885e+02 1.600e+03 1.600e+03 4.069e-07
3.920e+02 1.600e+03 1.600e+03 3.242e-07
3.955e+02 1.600e+03 1.600e+03 2.670e-07
3.990e+02 1.600e+03 1.600e+03 2.416e-07
